%YAML 1.1
%TAG !u! tag:unity3d.com,2011:
--- !u!114 &11400000
MonoBehaviour:
  m_ObjectHideFlags: 0
  m_PrefabParentObject: {fileID: 0}
  m_PrefabInternal: {fileID: 0}
  m_GameObject: {fileID: 0}
  m_Enabled: 1
  m_EditorHideFlags: 0
  m_Script: {fileID: 11500000, guid: cb0a131e1dac6a643b59c68f17db8aa9, type: 3}
  m_Name: Translate_Scores
  m_EditorClassIdentifier: 
  m_XChange: -330
  m_YChange: 0
  m_Length: 0.5
  m_PreCalculatedLerp: 0
